{
  "problemType": [ "IVP_2D" ],
  "equationType": [ "unsteadyAdvection", 1],
  "basisType": [ "fourier" ],
  "gaussianType": [ "gauss-lobatto" ],
  "intervalx": [ -1, 1 ],
  "intervaly": [ -1, 1 ],
  "boundaryConditionx": [ "neumann" ],
  "boundaryConditiony": [ "neumann" ],
  "boundaryValuesx": [ 0, 0 ],
  "boundaryValuesy": [ 0, 0 ],
  "rhsFunction": [ "10*(sin(8*x*(y-1)))" ],
  "order": [ 9 ],
  "interpolationNodes": [50],
  "time": [1],
  "timeStep": [0.01],
  "timeIntegration": ["backwardEuler"],
  "initialCondition": ["sin(-10*((x-0.4)^2+y^2))"],
  "execution": ["serial"]
}
